{
	// header
	"search_placeholder": {
		"message": "Endereço de um feed ou termos de busca..."
	},
	"search_button": {
		"message": "Buscar por um podcast"
	},
	"add_feed": {
		"message": "Adicionar Feed"
	},
	// notifications
	"dismiss_all": {
		"message": "Dispensar todas as notificações..."
	},
	"click_dismiss": {
		"message": "clique para dispensar..."
	},
	// player
	"play": {
		"message": "Tocar"
	},
	"pause": {
		"message": "Pausar"
	},
	"play_pause": {
		"message": "Tocar/Pausar"
	},
	"stop": {
		"message": "Parar"
	},
	"forward": {
		"message": "Pular 15 segundos"
	},
	"backward": {
		"message": "Voltar 15 segundos"
	},
	"refresh_player": {
		"message": "Recarrecar tocador"
	},
	"speed": {
		"message": "Velocidade"
	},
	"speed_down": {
		"message": "Diminuir velocidade"
	},
	"speed_up": {
		"message": "Aumentar velocidade"
	},
	"playing": {
		"message": "Reproduzindo"
	},
	"paused": {
		"message": "Pausado"
	},
	"previous_episode": {
		"message": "Episódio anterior"
	},
	"next_episode": {
		"message": "Próximo episódio"
	},
	"show_player_options": {
		"message": "Mostrar opções do player"
	},
	"hide_player_options": {
		"message": "Esconder opções do player"
	},
	"order_next_previous": {
		"message": "Próximo/Anterior"
	},
	"order_from_podcast": {
		"message": "do podcast"
	},
	"order_from_last_episodes": {
		"message": "dos últimos episódios"
	},
	"order_from_playlist": {
		"message": "da playlist"
	},
	"continue_playing": {
		"message": "Continuar reproduzindo"
	},
	"continue_playing_description": {
		"message": "reproduzir próximo episódio quando o atual acabar"
	},
	"remove_when_finished": {
		"message": "Remover da playlist ao finalizar"
	},
	"pause_when_locked": {
		"message": "Pausar quando o computador for bloqueado"
	},
	"player_error" : {
		"message": "Erro carregando seu episódio, clique no play para tentar novamente"
	},
	// playlist
	"remove_from_playlist": {
		"message": "Remover da playlist"
	},
	"add_to_playlist": {
		"message": "Adicionar à playlist"
	},
	"empty_playlist": {
		"message": "Sua playlist está vazia"
	},
	// search
	"subscribe": {
		"message": "Adicionar este feed ao podStation"
	},
	"open_in_itunes": {
		"message": "Abrir no iTunes"
	},
	"search_results_for": {
		"message": "Resultados de busca para <i>$search_term$</i>",
		"placeholders": {
			"search_term": {
				"content": "$1",
				"example": "some podcast"
			}
		}
	},
	"results_from" : {
		"message": "Resultados de <a href=\"http://www.podcastsearchservice.com/\">www.podcastsearchservice.com</a> e <a href=\"http://www.apple.com/itunes/\">iTunes</a>"
	},
	"itunes_trademark" : {
		"message": "iTunes é uma marca registrada de Apple Inc., registrada em U.S. e outros países."
	},
	"no_results" : {
		"message": "Desculpa, não conseguimos achar um podcast para você..."
	},
	// podcasts
	"number_episodes": {
		"message": "$number$ Episódio(s)",
		"description": "Number of episodes to be shown in the podcasts list",
		"placeholders": {
			"number": {
				"content": "$1",
				"example": "20"
			}
		}
	},
	"publication_date": {
		"message": "Data de publicação"
	},
	"updating_podcasts": {
		"message": "Atualizando podcasts..."
	},
	"show_episodes": {
		"message": "Mostrar episódios"
	},
	"open_podcast_website": {
		"message": "Abrir site do podcast"
	},
	"first_added": {
		"message": "Adicionados primeiro"
	},
	"last_added": {
		"message": "Adicionados por último"
	},
	// episodes
	"all_eps_from": {
		"message": "Todos os episódios de <i>$podcast$</i>",
		"placeholders": {
			"podcast": {
				"content": "$1"
			}
		}
	},
	"eps_from": {
		"message": "Episódios de $podcast$",
		"placeholders": {
			"podcast": {
				"content": "$1"
			}
		}
	},
	"no_podcasts": {
		"message": "Você ainda não tem nenhum podcast, use a barra de pesquisa para procurar um ou adicione seus feeds"
	},
	"no_episodes": {
		"message": "Você ainda não tem nenhum episódio, busque por podcasts ou adicione feeds"
	},
	"no_podcast_in_progress": {
		"message": "Você não tem podcasts em progresso no momento"
	},
	"last_time_played": {
		"message": "Última vez tocado"
	},
	"paused_at": {
		"message": "Pausado em"
	},
	"play_episode": {
		"message": "Reproduzir episódio"
	},
	"open_episode_website": {
		"message": "Abrir site do episódio"
	},
	"oldest": {
		"message": "Mais velhos"
	},
	"most_recent": {
		"message": "Mais novos"
	},
	"remove_progress": {
		"message": "Remover progress"
	},
	// options
	"auto_update": {
		"message": "Atualizar podcasts automaticamente"
	},
	"update_frequency": {
		"message": "Frequência de atualização"
	},
	"minutes": {
		"message": "minutos"
	},
	"integrate_screen_shader": {
		"message": "Integração com <a href=\"https://chrome.google.com/webstore/detail/screen-shader/fmlboobidmkelggdainpknloccojpppi\" target=\"_blank\">Screen Shader</a>"
	},
	"analytics": {
		"message": "Enviar dados anônimos de uso (analytics, more information <a href=\"https://podstation.blogspot.de/2017/09/anonymous-usage-data-and-analytics.html\" target=\"_blank\">here</a>)"
	},
	"save": {
		"message": "Salvar"
	},
	// about
	"about" : {
		"message": "Sobre"
	},
	"about_long_text" : {
		"message": "<p>Podstation é um simples agregador de podcasts.</p><p>Este é um trabalho em desenvolvimento, para ver as melhorias planejadas ou sugerir novas funções, visite a nossa		<a href=\"https://bitbucket.org/dellagustin/podstation_chrome_ext/issues?status=new&status=open\" target=\"_blank\">pagina de rastreamento de bugs</a>.</p><p>Podstation é desenvolvido por <a href=\"https://de.linkedin.com/pub/guilherme-dellagustin/28/957/154\" target=\"_blank\">Guilherme Dellagustin</a> e é um projeto open source, veja o código no <a href=\"https://github.com/podStation/podStation\" target=\"_blank\">GitHub</a>.</p>"
	},
	"integrated_with": {
		"message": "Intragrado com"
	},
	"stats_for_nerds": {
		"message": "Estatísticas para Nerds"
	},
	// welcome
	"welcome": {
		"message": "Bem vindo!"
	},
	"welcome_long_text" : {
		"message": "<p>Bem vindo ao podStation!</p><p>Use a barra de busca acima para procurar por seus podcasts favoritos.</p>"
	},
	// toolbar
	"update_all": {
		"message": "Atualizar todos",
		"description": "Update all podcasts"
	},
	"last_episodes": {
		"message": "Últimos episódios",
		"description": "Link to the last episodes of all podcasts"
	},
	"in_progress": {
		"message": "Episódios em progresso"
	},
	"toggle_playlist": {
		"message": "Mostrar/esconder playlist"
	},
	"import_opml": {
		"message": "Importar feeds de um arquivo OPML"
	},
	"export_opml": {
		"message": "Exportar feeds para um arquivo OPML"
	},
	"review": {
		"message": "Mande amor, deixe um review"
	},
	"options": {
		"message": "Opções"
	},
	"report_bug": {
		"message": "Reportar um problema"
	},
	"about_tb": {
		"message": "Sobre..."
	},
	"donate": {
		"message": "Doar"
	},
	// pop up
	"open": {
		"message": "abrir"
	},
	"feeds_in_page": {
		"message": "Feeds nessa página"
	},
	"feed_in_list": {
		"message": "Opa! Você já tem esse feed."
	},
	// Social
	"tweet": {
		"message": "Tuitar"
	},
	"tweet_this_episode": {
		"message": "Tuitar esse episódio"
	},
	"facebook_share": {
		"message": "Compartilhar"
	},
	"facebook_share_this_episode": {
		"message": "Compartilhar esse episódio no Facebook"
	}
}